^C:\METIS\BUILD\CMAKEFILES\D5A21E533802EE37AFD1ADED0973281D\GENERATE.STAMP.RULE
C:\PROGRAM FILES (X86)\CMAKE\SHARE\CMAKE-3.0\MODULES\CMAKECINFORMATION.CMAKE
C:\PROGRAM FILES (X86)\CMAKE\SHARE\CMAKE-3.0\MODULES\CMAKECXXINFORMATION.CMAKE
C:\PROGRAM FILES (X86)\CMAKE\SHARE\CMAKE-3.0\MODULES\CMAKECOMMONLANGUAGEINCLUDE.CMAKE
C:\PROGRAM FILES (X86)\CMAKE\SHARE\CMAKE-3.0\MODULES\CMAKEGENERICSYSTEM.CMAKE
C:\PROGRAM FILES (X86)\CMAKE\SHARE\CMAKE-3.0\MODULES\CMAKERCINFORMATION.CMAKE
C:\PROGRAM FILES (X86)\CMAKE\SHARE\CMAKE-3.0\MODULES\CMAKESYSTEMSPECIFICINFORMATION.CMAKE
C:\PROGRAM FILES (X86)\CMAKE\SHARE\CMAKE-3.0\MODULES\CHECKFUNCTIONEXISTS.CMAKE
C:\PROGRAM FILES (X86)\CMAKE\SHARE\CMAKE-3.0\MODULES\CHECKINCLUDEFILE.CMAKE
C:\PROGRAM FILES (X86)\CMAKE\SHARE\CMAKE-3.0\MODULES\PLATFORM\WINDOWS-MSVC-C.CMAKE
C:\PROGRAM FILES (X86)\CMAKE\SHARE\CMAKE-3.0\MODULES\PLATFORM\WINDOWS-MSVC-CXX.CMAKE
C:\PROGRAM FILES (X86)\CMAKE\SHARE\CMAKE-3.0\MODULES\PLATFORM\WINDOWS-MSVC.CMAKE
C:\PROGRAM FILES (X86)\CMAKE\SHARE\CMAKE-3.0\MODULES\PLATFORM\WINDOWS.CMAKE
C:\PROGRAM FILES (X86)\CMAKE\SHARE\CMAKE-3.0\MODULES\PLATFORM\WINDOWSPATHS.CMAKE
C:\METIS\CMAKELISTS.TXT
C:\METIS\GKLIB\GKLIBSYSTEM.CMAKE
C:\METIS\BUILD\CMAKEFILES\3.0.0\CMAKECCOMPILER.CMAKE
C:\METIS\BUILD\CMAKEFILES\3.0.0\CMAKECXXCOMPILER.CMAKE
C:\METIS\BUILD\CMAKEFILES\3.0.0\CMAKERCCOMPILER.CMAKE
C:\METIS\BUILD\CMAKEFILES\3.0.0\CMAKESYSTEM.CMAKE
C:\METIS\INCLUDE\CMAKELISTS.TXT
C:\METIS\LIBMETIS\CMAKELISTS.TXT
C:\METIS\PROGRAMS\CMAKELISTS.TXT
^C:\METIS\BUILD\CMAKEFILES\D5A21E533802EE37AFD1ADED0973281D\ZERO_CHECK.RULE
