^C:\METIS\PROGRAMS\CMPFILLIN.C
C:\METIS\PROGRAMS\METISBIN.H
C:\METIS\GKLIB\GKLIB.H
C:\METIS\GKLIB\GK_ARCH.H
C:\METIS\GKLIB\MS_STDINT.H
C:\PROGRAM FILES (X86)\MICROSOFT VISUAL STUDIO 10.0\VC\INCLUDE\LIMITS.H
C:\PROGRAM FILES (X86)\MICROSOFT VISUAL STUDIO 10.0\VC\INCLUDE\CRTDEFS.H
C:\PROGRAM FILES (X86)\MICROSOFT VISUAL STUDIO 10.0\VC\INCLUDE\SAL.H
C:\PROGRAM FILES (X86)\MICROSOFT VISUAL STUDIO 10.0\VC\INCLUDE\CODEANALYSIS\SOURCEANNOTATIONS.H
C:\PROGRAM FILES (X86)\MICROSOFT VISUAL STUDIO 10.0\VC\INCLUDE\VADEFS.H
C:\PROGRAM FILES (X86)\MICROSOFT VISUAL STUDIO 10.0\VC\INCLUDE\WCHAR.H
C:\PROGRAM FILES (X86)\MICROSOFT VISUAL STUDIO 10.0\VC\INCLUDE\SWPRINTF.INL
C:\PROGRAM FILES (X86)\MICROSOFT VISUAL STUDIO 10.0\VC\INCLUDE\WTIME.INL
C:\METIS\GKLIB\MS_INTTYPES.H
C:\METIS\GKLIB\MS_STAT.H
C:\PROGRAM FILES (X86)\MICROSOFT VISUAL STUDIO 10.0\VC\INCLUDE\SYS\STAT.H
C:\PROGRAM FILES (X86)\MICROSOFT VISUAL STUDIO 10.0\VC\INCLUDE\SYS\TYPES.H
C:\PROGRAM FILES (X86)\MICROSOFT VISUAL STUDIO 10.0\VC\INCLUDE\SYS\STAT.INL
C:\PROGRAM FILES (X86)\MICROSOFT VISUAL STUDIO 10.0\VC\INCLUDE\STDDEF.H
C:\PROGRAM FILES (X86)\MICROSOFT VISUAL STUDIO 10.0\VC\INCLUDE\STDLIB.H
C:\PROGRAM FILES (X86)\MICROSOFT VISUAL STUDIO 10.0\VC\INCLUDE\STDARG.H
C:\PROGRAM FILES (X86)\MICROSOFT VISUAL STUDIO 10.0\VC\INCLUDE\STDIO.H
C:\PROGRAM FILES (X86)\MICROSOFT VISUAL STUDIO 10.0\VC\INCLUDE\ERRNO.H
C:\PROGRAM FILES (X86)\MICROSOFT VISUAL STUDIO 10.0\VC\INCLUDE\CTYPE.H
C:\PROGRAM FILES (X86)\MICROSOFT VISUAL STUDIO 10.0\VC\INCLUDE\MATH.H
C:\PROGRAM FILES (X86)\MICROSOFT VISUAL STUDIO 10.0\VC\INCLUDE\FLOAT.H
C:\PROGRAM FILES (X86)\MICROSOFT VISUAL STUDIO 10.0\VC\INCLUDE\CRTWRN.H
C:\PROGRAM FILES (X86)\MICROSOFT VISUAL STUDIO 10.0\VC\INCLUDE\TIME.H
C:\PROGRAM FILES (X86)\MICROSOFT VISUAL STUDIO 10.0\VC\INCLUDE\TIME.INL
C:\PROGRAM FILES (X86)\MICROSOFT VISUAL STUDIO 10.0\VC\INCLUDE\STRING.H
C:\PROGRAM FILES (X86)\MICROSOFT VISUAL STUDIO 10.0\VC\INCLUDE\SIGNAL.H
C:\PROGRAM FILES (X86)\MICROSOFT VISUAL STUDIO 10.0\VC\INCLUDE\SETJMP.H
C:\PROGRAM FILES (X86)\MICROSOFT VISUAL STUDIO 10.0\VC\INCLUDE\ASSERT.H
C:\METIS\GKLIB\GKREGEX.H
C:\METIS\GKLIB\GK_TYPES.H
C:\METIS\GKLIB\GK_STRUCT.H
C:\METIS\GKLIB\GK_EXTERNS.H
C:\METIS\GKLIB\GK_DEFS.H
C:\METIS\GKLIB\GK_MACROS.H
C:\METIS\GKLIB\GK_GETOPT.H
C:\METIS\GKLIB\GK_MKSORT.H
C:\METIS\GKLIB\GK_MKBLAS.H
C:\METIS\GKLIB\GK_MKMEMORY.H
C:\METIS\GKLIB\GK_MKPQUEUE.H
C:\METIS\GKLIB\GK_MKPQUEUE2.H
C:\METIS\GKLIB\GK_MKRANDOM.H
C:\METIS\GKLIB\GK_MKUTILS.H
C:\METIS\GKLIB\GK_PROTO.H
C:\METIS\INCLUDE\METIS.H
C:\METIS\LIBMETIS\RENAME.H
C:\METIS\LIBMETIS\GKLIB_DEFS.H
C:\METIS\LIBMETIS\GKLIB_RENAME.H
C:\METIS\LIBMETIS\DEFS.H
C:\METIS\LIBMETIS\STRUCT.H
C:\METIS\LIBMETIS\MACROS.H
C:\METIS\LIBMETIS\PROTO.H
C:\METIS\PROGRAMS\DEFS.H
C:\METIS\PROGRAMS\STRUCT.H
C:\METIS\PROGRAMS\PROTO.H
^C:\METIS\PROGRAMS\IO.C
C:\METIS\PROGRAMS\METISBIN.H
C:\METIS\GKLIB\GKLIB.H
C:\METIS\GKLIB\GK_ARCH.H
C:\METIS\GKLIB\MS_STDINT.H
C:\PROGRAM FILES (X86)\MICROSOFT VISUAL STUDIO 10.0\VC\INCLUDE\LIMITS.H
C:\PROGRAM FILES (X86)\MICROSOFT VISUAL STUDIO 10.0\VC\INCLUDE\CRTDEFS.H
C:\PROGRAM FILES (X86)\MICROSOFT VISUAL STUDIO 10.0\VC\INCLUDE\SAL.H
C:\PROGRAM FILES (X86)\MICROSOFT VISUAL STUDIO 10.0\VC\INCLUDE\CODEANALYSIS\SOURCEANNOTATIONS.H
C:\PROGRAM FILES (X86)\MICROSOFT VISUAL STUDIO 10.0\VC\INCLUDE\VADEFS.H
C:\PROGRAM FILES (X86)\MICROSOFT VISUAL STUDIO 10.0\VC\INCLUDE\WCHAR.H
C:\PROGRAM FILES (X86)\MICROSOFT VISUAL STUDIO 10.0\VC\INCLUDE\SWPRINTF.INL
C:\PROGRAM FILES (X86)\MICROSOFT VISUAL STUDIO 10.0\VC\INCLUDE\WTIME.INL
C:\METIS\GKLIB\MS_INTTYPES.H
C:\METIS\GKLIB\MS_STAT.H
C:\PROGRAM FILES (X86)\MICROSOFT VISUAL STUDIO 10.0\VC\INCLUDE\SYS\STAT.H
C:\PROGRAM FILES (X86)\MICROSOFT VISUAL STUDIO 10.0\VC\INCLUDE\SYS\TYPES.H
C:\PROGRAM FILES (X86)\MICROSOFT VISUAL STUDIO 10.0\VC\INCLUDE\SYS\STAT.INL
C:\PROGRAM FILES (X86)\MICROSOFT VISUAL STUDIO 10.0\VC\INCLUDE\STDDEF.H
C:\PROGRAM FILES (X86)\MICROSOFT VISUAL STUDIO 10.0\VC\INCLUDE\STDLIB.H
C:\PROGRAM FILES (X86)\MICROSOFT VISUAL STUDIO 10.0\VC\INCLUDE\STDARG.H
C:\PROGRAM FILES (X86)\MICROSOFT VISUAL STUDIO 10.0\VC\INCLUDE\STDIO.H
C:\PROGRAM FILES (X86)\MICROSOFT VISUAL STUDIO 10.0\VC\INCLUDE\ERRNO.H
C:\PROGRAM FILES (X86)\MICROSOFT VISUAL STUDIO 10.0\VC\INCLUDE\CTYPE.H
C:\PROGRAM FILES (X86)\MICROSOFT VISUAL STUDIO 10.0\VC\INCLUDE\MATH.H
C:\PROGRAM FILES (X86)\MICROSOFT VISUAL STUDIO 10.0\VC\INCLUDE\FLOAT.H
C:\PROGRAM FILES (X86)\MICROSOFT VISUAL STUDIO 10.0\VC\INCLUDE\CRTWRN.H
C:\PROGRAM FILES (X86)\MICROSOFT VISUAL STUDIO 10.0\VC\INCLUDE\TIME.H
C:\PROGRAM FILES (X86)\MICROSOFT VISUAL STUDIO 10.0\VC\INCLUDE\TIME.INL
C:\PROGRAM FILES (X86)\MICROSOFT VISUAL STUDIO 10.0\VC\INCLUDE\STRING.H
C:\PROGRAM FILES (X86)\MICROSOFT VISUAL STUDIO 10.0\VC\INCLUDE\SIGNAL.H
C:\PROGRAM FILES (X86)\MICROSOFT VISUAL STUDIO 10.0\VC\INCLUDE\SETJMP.H
C:\PROGRAM FILES (X86)\MICROSOFT VISUAL STUDIO 10.0\VC\INCLUDE\ASSERT.H
C:\METIS\GKLIB\GKREGEX.H
C:\METIS\GKLIB\GK_TYPES.H
C:\METIS\GKLIB\GK_STRUCT.H
C:\METIS\GKLIB\GK_EXTERNS.H
C:\METIS\GKLIB\GK_DEFS.H
C:\METIS\GKLIB\GK_MACROS.H
C:\METIS\GKLIB\GK_GETOPT.H
C:\METIS\GKLIB\GK_MKSORT.H
C:\METIS\GKLIB\GK_MKBLAS.H
C:\METIS\GKLIB\GK_MKMEMORY.H
C:\METIS\GKLIB\GK_MKPQUEUE.H
C:\METIS\GKLIB\GK_MKPQUEUE2.H
C:\METIS\GKLIB\GK_MKRANDOM.H
C:\METIS\GKLIB\GK_MKUTILS.H
C:\METIS\GKLIB\GK_PROTO.H
C:\METIS\INCLUDE\METIS.H
C:\METIS\LIBMETIS\RENAME.H
C:\METIS\LIBMETIS\GKLIB_DEFS.H
C:\METIS\LIBMETIS\GKLIB_RENAME.H
C:\METIS\LIBMETIS\DEFS.H
C:\METIS\LIBMETIS\STRUCT.H
C:\METIS\LIBMETIS\MACROS.H
C:\METIS\LIBMETIS\PROTO.H
C:\METIS\PROGRAMS\DEFS.H
C:\METIS\PROGRAMS\STRUCT.H
C:\METIS\PROGRAMS\PROTO.H
^C:\METIS\PROGRAMS\SMBFACTOR.C
C:\METIS\PROGRAMS\METISBIN.H
C:\METIS\GKLIB\GKLIB.H
C:\METIS\GKLIB\GK_ARCH.H
C:\METIS\GKLIB\MS_STDINT.H
C:\PROGRAM FILES (X86)\MICROSOFT VISUAL STUDIO 10.0\VC\INCLUDE\LIMITS.H
C:\PROGRAM FILES (X86)\MICROSOFT VISUAL STUDIO 10.0\VC\INCLUDE\CRTDEFS.H
C:\PROGRAM FILES (X86)\MICROSOFT VISUAL STUDIO 10.0\VC\INCLUDE\SAL.H
C:\PROGRAM FILES (X86)\MICROSOFT VISUAL STUDIO 10.0\VC\INCLUDE\CODEANALYSIS\SOURCEANNOTATIONS.H
C:\PROGRAM FILES (X86)\MICROSOFT VISUAL STUDIO 10.0\VC\INCLUDE\VADEFS.H
C:\PROGRAM FILES (X86)\MICROSOFT VISUAL STUDIO 10.0\VC\INCLUDE\WCHAR.H
C:\PROGRAM FILES (X86)\MICROSOFT VISUAL STUDIO 10.0\VC\INCLUDE\SWPRINTF.INL
C:\PROGRAM FILES (X86)\MICROSOFT VISUAL STUDIO 10.0\VC\INCLUDE\WTIME.INL
C:\METIS\GKLIB\MS_INTTYPES.H
C:\METIS\GKLIB\MS_STAT.H
C:\PROGRAM FILES (X86)\MICROSOFT VISUAL STUDIO 10.0\VC\INCLUDE\SYS\STAT.H
C:\PROGRAM FILES (X86)\MICROSOFT VISUAL STUDIO 10.0\VC\INCLUDE\SYS\TYPES.H
C:\PROGRAM FILES (X86)\MICROSOFT VISUAL STUDIO 10.0\VC\INCLUDE\SYS\STAT.INL
C:\PROGRAM FILES (X86)\MICROSOFT VISUAL STUDIO 10.0\VC\INCLUDE\STDDEF.H
C:\PROGRAM FILES (X86)\MICROSOFT VISUAL STUDIO 10.0\VC\INCLUDE\STDLIB.H
C:\PROGRAM FILES (X86)\MICROSOFT VISUAL STUDIO 10.0\VC\INCLUDE\STDARG.H
C:\PROGRAM FILES (X86)\MICROSOFT VISUAL STUDIO 10.0\VC\INCLUDE\STDIO.H
C:\PROGRAM FILES (X86)\MICROSOFT VISUAL STUDIO 10.0\VC\INCLUDE\ERRNO.H
C:\PROGRAM FILES (X86)\MICROSOFT VISUAL STUDIO 10.0\VC\INCLUDE\CTYPE.H
C:\PROGRAM FILES (X86)\MICROSOFT VISUAL STUDIO 10.0\VC\INCLUDE\MATH.H
C:\PROGRAM FILES (X86)\MICROSOFT VISUAL STUDIO 10.0\VC\INCLUDE\FLOAT.H
C:\PROGRAM FILES (X86)\MICROSOFT VISUAL STUDIO 10.0\VC\INCLUDE\CRTWRN.H
C:\PROGRAM FILES (X86)\MICROSOFT VISUAL STUDIO 10.0\VC\INCLUDE\TIME.H
C:\PROGRAM FILES (X86)\MICROSOFT VISUAL STUDIO 10.0\VC\INCLUDE\TIME.INL
C:\PROGRAM FILES (X86)\MICROSOFT VISUAL STUDIO 10.0\VC\INCLUDE\STRING.H
C:\PROGRAM FILES (X86)\MICROSOFT VISUAL STUDIO 10.0\VC\INCLUDE\SIGNAL.H
C:\PROGRAM FILES (X86)\MICROSOFT VISUAL STUDIO 10.0\VC\INCLUDE\SETJMP.H
C:\PROGRAM FILES (X86)\MICROSOFT VISUAL STUDIO 10.0\VC\INCLUDE\ASSERT.H
C:\METIS\GKLIB\GKREGEX.H
C:\METIS\GKLIB\GK_TYPES.H
C:\METIS\GKLIB\GK_STRUCT.H
C:\METIS\GKLIB\GK_EXTERNS.H
C:\METIS\GKLIB\GK_DEFS.H
C:\METIS\GKLIB\GK_MACROS.H
C:\METIS\GKLIB\GK_GETOPT.H
C:\METIS\GKLIB\GK_MKSORT.H
C:\METIS\GKLIB\GK_MKBLAS.H
C:\METIS\GKLIB\GK_MKMEMORY.H
C:\METIS\GKLIB\GK_MKPQUEUE.H
C:\METIS\GKLIB\GK_MKPQUEUE2.H
C:\METIS\GKLIB\GK_MKRANDOM.H
C:\METIS\GKLIB\GK_MKUTILS.H
C:\METIS\GKLIB\GK_PROTO.H
C:\METIS\INCLUDE\METIS.H
C:\METIS\LIBMETIS\RENAME.H
C:\METIS\LIBMETIS\GKLIB_DEFS.H
C:\METIS\LIBMETIS\GKLIB_RENAME.H
C:\METIS\LIBMETIS\DEFS.H
C:\METIS\LIBMETIS\STRUCT.H
C:\METIS\LIBMETIS\MACROS.H
C:\METIS\LIBMETIS\PROTO.H
C:\METIS\PROGRAMS\DEFS.H
C:\METIS\PROGRAMS\STRUCT.H
C:\METIS\PROGRAMS\PROTO.H
