^C:\METIS\GKLIB\B64.C
/c /IC:\metis\GKlib /IC:\metis\include /IC:\metis\libmetis\. /Zi /nologo /W3 /WX- /Od /Ob0 /D WIN32 /D _WINDOWS /D WIN32 /D MSC /D _CRT_SECURE_NO_DEPRECATE /D USE_GKREGEX /D NDEBUG /D NDEBUG2 /D "__thread=__declspec(thread)" /D _DEBUG /D "CMAKE_INTDIR=\"Debug\"" /D _MBCS /Gm- /RTC1 /MDd /GS /fp:precise /Zc:wchar_t /Zc:forScope /Fo"metis.dir\Debug\\" /Fd"metis.dir\Debug\vc100.pdb" /Gd /TC /errorReport:prompt C:\METIS\GKLIB\B64.C
^C:\METIS\GKLIB\BLAS.C
/c /IC:\metis\GKlib /IC:\metis\include /IC:\metis\libmetis\. /Zi /nologo /W3 /WX- /Od /Ob0 /D WIN32 /D _WINDOWS /D WIN32 /D MSC /D _CRT_SECURE_NO_DEPRECATE /D USE_GKREGEX /D NDEBUG /D NDEBUG2 /D "__thread=__declspec(thread)" /D _DEBUG /D "CMAKE_INTDIR=\"Debug\"" /D _MBCS /Gm- /RTC1 /MDd /GS /fp:precise /Zc:wchar_t /Zc:forScope /Fo"metis.dir\Debug\\" /Fd"metis.dir\Debug\vc100.pdb" /Gd /TC /errorReport:prompt C:\METIS\GKLIB\BLAS.C
^C:\METIS\GKLIB\CSR.C
/c /IC:\metis\GKlib /IC:\metis\include /IC:\metis\libmetis\. /Zi /nologo /W3 /WX- /Od /Ob0 /D WIN32 /D _WINDOWS /D WIN32 /D MSC /D _CRT_SECURE_NO_DEPRECATE /D USE_GKREGEX /D NDEBUG /D NDEBUG2 /D "__thread=__declspec(thread)" /D _DEBUG /D "CMAKE_INTDIR=\"Debug\"" /D _MBCS /Gm- /RTC1 /MDd /GS /fp:precise /Zc:wchar_t /Zc:forScope /Fo"metis.dir\Debug\\" /Fd"metis.dir\Debug\vc100.pdb" /Gd /TC /errorReport:prompt C:\METIS\GKLIB\CSR.C
^C:\METIS\GKLIB\ERROR.C
/c /IC:\metis\GKlib /IC:\metis\include /IC:\metis\libmetis\. /Zi /nologo /W3 /WX- /Od /Ob0 /D WIN32 /D _WINDOWS /D WIN32 /D MSC /D _CRT_SECURE_NO_DEPRECATE /D USE_GKREGEX /D NDEBUG /D NDEBUG2 /D "__thread=__declspec(thread)" /D _DEBUG /D "CMAKE_INTDIR=\"Debug\"" /D _MBCS /Gm- /RTC1 /MDd /GS /fp:precise /Zc:wchar_t /Zc:forScope /Fo"metis.dir\Debug\\" /Fd"metis.dir\Debug\vc100.pdb" /Gd /TC /errorReport:prompt C:\METIS\GKLIB\ERROR.C
^C:\METIS\GKLIB\EVALUATE.C
/c /IC:\metis\GKlib /IC:\metis\include /IC:\metis\libmetis\. /Zi /nologo /W3 /WX- /Od /Ob0 /D WIN32 /D _WINDOWS /D WIN32 /D MSC /D _CRT_SECURE_NO_DEPRECATE /D USE_GKREGEX /D NDEBUG /D NDEBUG2 /D "__thread=__declspec(thread)" /D _DEBUG /D "CMAKE_INTDIR=\"Debug\"" /D _MBCS /Gm- /RTC1 /MDd /GS /fp:precise /Zc:wchar_t /Zc:forScope /Fo"metis.dir\Debug\\" /Fd"metis.dir\Debug\vc100.pdb" /Gd /TC /errorReport:prompt C:\METIS\GKLIB\EVALUATE.C
^C:\METIS\GKLIB\FKVKSELECT.C
/c /IC:\metis\GKlib /IC:\metis\include /IC:\metis\libmetis\. /Zi /nologo /W3 /WX- /Od /Ob0 /D WIN32 /D _WINDOWS /D WIN32 /D MSC /D _CRT_SECURE_NO_DEPRECATE /D USE_GKREGEX /D NDEBUG /D NDEBUG2 /D "__thread=__declspec(thread)" /D _DEBUG /D "CMAKE_INTDIR=\"Debug\"" /D _MBCS /Gm- /RTC1 /MDd /GS /fp:precise /Zc:wchar_t /Zc:forScope /Fo"metis.dir\Debug\\" /Fd"metis.dir\Debug\vc100.pdb" /Gd /TC /errorReport:prompt C:\METIS\GKLIB\FKVKSELECT.C
^C:\METIS\GKLIB\FS.C
/c /IC:\metis\GKlib /IC:\metis\include /IC:\metis\libmetis\. /Zi /nologo /W3 /WX- /Od /Ob0 /D WIN32 /D _WINDOWS /D WIN32 /D MSC /D _CRT_SECURE_NO_DEPRECATE /D USE_GKREGEX /D NDEBUG /D NDEBUG2 /D "__thread=__declspec(thread)" /D _DEBUG /D "CMAKE_INTDIR=\"Debug\"" /D _MBCS /Gm- /RTC1 /MDd /GS /fp:precise /Zc:wchar_t /Zc:forScope /Fo"metis.dir\Debug\\" /Fd"metis.dir\Debug\vc100.pdb" /Gd /TC /errorReport:prompt C:\METIS\GKLIB\FS.C
^C:\METIS\GKLIB\GETOPT.C
/c /IC:\metis\GKlib /IC:\metis\include /IC:\metis\libmetis\. /Zi /nologo /W3 /WX- /Od /Ob0 /D WIN32 /D _WINDOWS /D WIN32 /D MSC /D _CRT_SECURE_NO_DEPRECATE /D USE_GKREGEX /D NDEBUG /D NDEBUG2 /D "__thread=__declspec(thread)" /D _DEBUG /D "CMAKE_INTDIR=\"Debug\"" /D _MBCS /Gm- /RTC1 /MDd /GS /fp:precise /Zc:wchar_t /Zc:forScope /Fo"metis.dir\Debug\\" /Fd"metis.dir\Debug\vc100.pdb" /Gd /TC /errorReport:prompt C:\METIS\GKLIB\GETOPT.C
^C:\METIS\GKLIB\GKREGEX.C
/c /IC:\metis\GKlib /IC:\metis\include /IC:\metis\libmetis\. /Zi /nologo /W3 /WX- /Od /Ob0 /D WIN32 /D _WINDOWS /D WIN32 /D MSC /D _CRT_SECURE_NO_DEPRECATE /D USE_GKREGEX /D NDEBUG /D NDEBUG2 /D "__thread=__declspec(thread)" /D _DEBUG /D "CMAKE_INTDIR=\"Debug\"" /D _MBCS /Gm- /RTC1 /MDd /GS /fp:precise /Zc:wchar_t /Zc:forScope /Fo"metis.dir\Debug\\" /Fd"metis.dir\Debug\vc100.pdb" /Gd /TC /errorReport:prompt C:\METIS\GKLIB\GKREGEX.C
^C:\METIS\GKLIB\HTABLE.C
/c /IC:\metis\GKlib /IC:\metis\include /IC:\metis\libmetis\. /Zi /nologo /W3 /WX- /Od /Ob0 /D WIN32 /D _WINDOWS /D WIN32 /D MSC /D _CRT_SECURE_NO_DEPRECATE /D USE_GKREGEX /D NDEBUG /D NDEBUG2 /D "__thread=__declspec(thread)" /D _DEBUG /D "CMAKE_INTDIR=\"Debug\"" /D _MBCS /Gm- /RTC1 /MDd /GS /fp:precise /Zc:wchar_t /Zc:forScope /Fo"metis.dir\Debug\\" /Fd"metis.dir\Debug\vc100.pdb" /Gd /TC /errorReport:prompt C:\METIS\GKLIB\HTABLE.C
^C:\METIS\GKLIB\IO.C
/c /IC:\metis\GKlib /IC:\metis\include /IC:\metis\libmetis\. /Zi /nologo /W3 /WX- /Od /Ob0 /D WIN32 /D _WINDOWS /D WIN32 /D MSC /D _CRT_SECURE_NO_DEPRECATE /D USE_GKREGEX /D NDEBUG /D NDEBUG2 /D "__thread=__declspec(thread)" /D _DEBUG /D "CMAKE_INTDIR=\"Debug\"" /D _MBCS /Gm- /RTC1 /MDd /GS /fp:precise /Zc:wchar_t /Zc:forScope /Fo"metis.dir\Debug\\" /Fd"metis.dir\Debug\vc100.pdb" /Gd /TC /errorReport:prompt C:\METIS\GKLIB\IO.C
^C:\METIS\GKLIB\ITEMSETS.C
/c /IC:\metis\GKlib /IC:\metis\include /IC:\metis\libmetis\. /Zi /nologo /W3 /WX- /Od /Ob0 /D WIN32 /D _WINDOWS /D WIN32 /D MSC /D _CRT_SECURE_NO_DEPRECATE /D USE_GKREGEX /D NDEBUG /D NDEBUG2 /D "__thread=__declspec(thread)" /D _DEBUG /D "CMAKE_INTDIR=\"Debug\"" /D _MBCS /Gm- /RTC1 /MDd /GS /fp:precise /Zc:wchar_t /Zc:forScope /Fo"metis.dir\Debug\\" /Fd"metis.dir\Debug\vc100.pdb" /Gd /TC /errorReport:prompt C:\METIS\GKLIB\ITEMSETS.C
^C:\METIS\GKLIB\MCORE.C
/c /IC:\metis\GKlib /IC:\metis\include /IC:\metis\libmetis\. /Zi /nologo /W3 /WX- /Od /Ob0 /D WIN32 /D _WINDOWS /D WIN32 /D MSC /D _CRT_SECURE_NO_DEPRECATE /D USE_GKREGEX /D NDEBUG /D NDEBUG2 /D "__thread=__declspec(thread)" /D _DEBUG /D "CMAKE_INTDIR=\"Debug\"" /D _MBCS /Gm- /RTC1 /MDd /GS /fp:precise /Zc:wchar_t /Zc:forScope /Fo"metis.dir\Debug\\" /Fd"metis.dir\Debug\vc100.pdb" /Gd /TC /errorReport:prompt C:\METIS\GKLIB\MCORE.C
^C:\METIS\GKLIB\MEMORY.C
/c /IC:\metis\GKlib /IC:\metis\include /IC:\metis\libmetis\. /Zi /nologo /W3 /WX- /Od /Ob0 /D WIN32 /D _WINDOWS /D WIN32 /D MSC /D _CRT_SECURE_NO_DEPRECATE /D USE_GKREGEX /D NDEBUG /D NDEBUG2 /D "__thread=__declspec(thread)" /D _DEBUG /D "CMAKE_INTDIR=\"Debug\"" /D _MBCS /Gm- /RTC1 /MDd /GS /fp:precise /Zc:wchar_t /Zc:forScope /Fo"metis.dir\Debug\\" /Fd"metis.dir\Debug\vc100.pdb" /Gd /TC /errorReport:prompt C:\METIS\GKLIB\MEMORY.C
^C:\METIS\GKLIB\OMP.C
/c /IC:\metis\GKlib /IC:\metis\include /IC:\metis\libmetis\. /Zi /nologo /W3 /WX- /Od /Ob0 /D WIN32 /D _WINDOWS /D WIN32 /D MSC /D _CRT_SECURE_NO_DEPRECATE /D USE_GKREGEX /D NDEBUG /D NDEBUG2 /D "__thread=__declspec(thread)" /D _DEBUG /D "CMAKE_INTDIR=\"Debug\"" /D _MBCS /Gm- /RTC1 /MDd /GS /fp:precise /Zc:wchar_t /Zc:forScope /Fo"metis.dir\Debug\\" /Fd"metis.dir\Debug\vc100.pdb" /Gd /TC /errorReport:prompt C:\METIS\GKLIB\OMP.C
^C:\METIS\GKLIB\PDB.C
/c /IC:\metis\GKlib /IC:\metis\include /IC:\metis\libmetis\. /Zi /nologo /W3 /WX- /Od /Ob0 /D WIN32 /D _WINDOWS /D WIN32 /D MSC /D _CRT_SECURE_NO_DEPRECATE /D USE_GKREGEX /D NDEBUG /D NDEBUG2 /D "__thread=__declspec(thread)" /D _DEBUG /D "CMAKE_INTDIR=\"Debug\"" /D _MBCS /Gm- /RTC1 /MDd /GS /fp:precise /Zc:wchar_t /Zc:forScope /Fo"metis.dir\Debug\\" /Fd"metis.dir\Debug\vc100.pdb" /Gd /TC /errorReport:prompt C:\METIS\GKLIB\PDB.C
^C:\METIS\GKLIB\PQUEUE.C
/c /IC:\metis\GKlib /IC:\metis\include /IC:\metis\libmetis\. /Zi /nologo /W3 /WX- /Od /Ob0 /D WIN32 /D _WINDOWS /D WIN32 /D MSC /D _CRT_SECURE_NO_DEPRECATE /D USE_GKREGEX /D NDEBUG /D NDEBUG2 /D "__thread=__declspec(thread)" /D _DEBUG /D "CMAKE_INTDIR=\"Debug\"" /D _MBCS /Gm- /RTC1 /MDd /GS /fp:precise /Zc:wchar_t /Zc:forScope /Fo"metis.dir\Debug\\" /Fd"metis.dir\Debug\vc100.pdb" /Gd /TC /errorReport:prompt C:\METIS\GKLIB\PQUEUE.C
^C:\METIS\GKLIB\RANDOM.C
/c /IC:\metis\GKlib /IC:\metis\include /IC:\metis\libmetis\. /Zi /nologo /W3 /WX- /Od /Ob0 /D WIN32 /D _WINDOWS /D WIN32 /D MSC /D _CRT_SECURE_NO_DEPRECATE /D USE_GKREGEX /D NDEBUG /D NDEBUG2 /D "__thread=__declspec(thread)" /D _DEBUG /D "CMAKE_INTDIR=\"Debug\"" /D _MBCS /Gm- /RTC1 /MDd /GS /fp:precise /Zc:wchar_t /Zc:forScope /Fo"metis.dir\Debug\\" /Fd"metis.dir\Debug\vc100.pdb" /Gd /TC /errorReport:prompt C:\METIS\GKLIB\RANDOM.C
^C:\METIS\GKLIB\RW.C
/c /IC:\metis\GKlib /IC:\metis\include /IC:\metis\libmetis\. /Zi /nologo /W3 /WX- /Od /Ob0 /D WIN32 /D _WINDOWS /D WIN32 /D MSC /D _CRT_SECURE_NO_DEPRECATE /D USE_GKREGEX /D NDEBUG /D NDEBUG2 /D "__thread=__declspec(thread)" /D _DEBUG /D "CMAKE_INTDIR=\"Debug\"" /D _MBCS /Gm- /RTC1 /MDd /GS /fp:precise /Zc:wchar_t /Zc:forScope /Fo"metis.dir\Debug\\" /Fd"metis.dir\Debug\vc100.pdb" /Gd /TC /errorReport:prompt C:\METIS\GKLIB\RW.C
^C:\METIS\GKLIB\SEQ.C
/c /IC:\metis\GKlib /IC:\metis\include /IC:\metis\libmetis\. /Zi /nologo /W3 /WX- /Od /Ob0 /D WIN32 /D _WINDOWS /D WIN32 /D MSC /D _CRT_SECURE_NO_DEPRECATE /D USE_GKREGEX /D NDEBUG /D NDEBUG2 /D "__thread=__declspec(thread)" /D _DEBUG /D "CMAKE_INTDIR=\"Debug\"" /D _MBCS /Gm- /RTC1 /MDd /GS /fp:precise /Zc:wchar_t /Zc:forScope /Fo"metis.dir\Debug\\" /Fd"metis.dir\Debug\vc100.pdb" /Gd /TC /errorReport:prompt C:\METIS\GKLIB\SEQ.C
^C:\METIS\GKLIB\SORT.C
/c /IC:\metis\GKlib /IC:\metis\include /IC:\metis\libmetis\. /Zi /nologo /W3 /WX- /Od /Ob0 /D WIN32 /D _WINDOWS /D WIN32 /D MSC /D _CRT_SECURE_NO_DEPRECATE /D USE_GKREGEX /D NDEBUG /D NDEBUG2 /D "__thread=__declspec(thread)" /D _DEBUG /D "CMAKE_INTDIR=\"Debug\"" /D _MBCS /Gm- /RTC1 /MDd /GS /fp:precise /Zc:wchar_t /Zc:forScope /Fo"metis.dir\Debug\\" /Fd"metis.dir\Debug\vc100.pdb" /Gd /TC /errorReport:prompt C:\METIS\GKLIB\SORT.C
^C:\METIS\GKLIB\STRING.C
/c /IC:\metis\GKlib /IC:\metis\include /IC:\metis\libmetis\. /Zi /nologo /W3 /WX- /Od /Ob0 /D WIN32 /D _WINDOWS /D WIN32 /D MSC /D _CRT_SECURE_NO_DEPRECATE /D USE_GKREGEX /D NDEBUG /D NDEBUG2 /D "__thread=__declspec(thread)" /D _DEBUG /D "CMAKE_INTDIR=\"Debug\"" /D _MBCS /Gm- /RTC1 /MDd /GS /fp:precise /Zc:wchar_t /Zc:forScope /Fo"metis.dir\Debug\\" /Fd"metis.dir\Debug\vc100.pdb" /Gd /TC /errorReport:prompt C:\METIS\GKLIB\STRING.C
^C:\METIS\GKLIB\TIMERS.C
/c /IC:\metis\GKlib /IC:\metis\include /IC:\metis\libmetis\. /Zi /nologo /W3 /WX- /Od /Ob0 /D WIN32 /D _WINDOWS /D WIN32 /D MSC /D _CRT_SECURE_NO_DEPRECATE /D USE_GKREGEX /D NDEBUG /D NDEBUG2 /D "__thread=__declspec(thread)" /D _DEBUG /D "CMAKE_INTDIR=\"Debug\"" /D _MBCS /Gm- /RTC1 /MDd /GS /fp:precise /Zc:wchar_t /Zc:forScope /Fo"metis.dir\Debug\\" /Fd"metis.dir\Debug\vc100.pdb" /Gd /TC /errorReport:prompt C:\METIS\GKLIB\TIMERS.C
^C:\METIS\GKLIB\TOKENIZER.C
/c /IC:\metis\GKlib /IC:\metis\include /IC:\metis\libmetis\. /Zi /nologo /W3 /WX- /Od /Ob0 /D WIN32 /D _WINDOWS /D WIN32 /D MSC /D _CRT_SECURE_NO_DEPRECATE /D USE_GKREGEX /D NDEBUG /D NDEBUG2 /D "__thread=__declspec(thread)" /D _DEBUG /D "CMAKE_INTDIR=\"Debug\"" /D _MBCS /Gm- /RTC1 /MDd /GS /fp:precise /Zc:wchar_t /Zc:forScope /Fo"metis.dir\Debug\\" /Fd"metis.dir\Debug\vc100.pdb" /Gd /TC /errorReport:prompt C:\METIS\GKLIB\TOKENIZER.C
^C:\METIS\LIBMETIS\AUXAPI.C
/c /IC:\metis\GKlib /IC:\metis\include /IC:\metis\libmetis\. /Zi /nologo /W3 /WX- /Od /Ob0 /D WIN32 /D _WINDOWS /D WIN32 /D MSC /D _CRT_SECURE_NO_DEPRECATE /D USE_GKREGEX /D NDEBUG /D NDEBUG2 /D "__thread=__declspec(thread)" /D _DEBUG /D "CMAKE_INTDIR=\"Debug\"" /D _MBCS /Gm- /RTC1 /MDd /GS /fp:precise /Zc:wchar_t /Zc:forScope /Fo"metis.dir\Debug\\" /Fd"metis.dir\Debug\vc100.pdb" /Gd /TC /errorReport:prompt C:\METIS\LIBMETIS\AUXAPI.C
^C:\METIS\LIBMETIS\BALANCE.C
/c /IC:\metis\GKlib /IC:\metis\include /IC:\metis\libmetis\. /Zi /nologo /W3 /WX- /Od /Ob0 /D WIN32 /D _WINDOWS /D WIN32 /D MSC /D _CRT_SECURE_NO_DEPRECATE /D USE_GKREGEX /D NDEBUG /D NDEBUG2 /D "__thread=__declspec(thread)" /D _DEBUG /D "CMAKE_INTDIR=\"Debug\"" /D _MBCS /Gm- /RTC1 /MDd /GS /fp:precise /Zc:wchar_t /Zc:forScope /Fo"metis.dir\Debug\\" /Fd"metis.dir\Debug\vc100.pdb" /Gd /TC /errorReport:prompt C:\METIS\LIBMETIS\BALANCE.C
^C:\METIS\LIBMETIS\BUCKETSORT.C
/c /IC:\metis\GKlib /IC:\metis\include /IC:\metis\libmetis\. /Zi /nologo /W3 /WX- /Od /Ob0 /D WIN32 /D _WINDOWS /D WIN32 /D MSC /D _CRT_SECURE_NO_DEPRECATE /D USE_GKREGEX /D NDEBUG /D NDEBUG2 /D "__thread=__declspec(thread)" /D _DEBUG /D "CMAKE_INTDIR=\"Debug\"" /D _MBCS /Gm- /RTC1 /MDd /GS /fp:precise /Zc:wchar_t /Zc:forScope /Fo"metis.dir\Debug\\" /Fd"metis.dir\Debug\vc100.pdb" /Gd /TC /errorReport:prompt C:\METIS\LIBMETIS\BUCKETSORT.C
^C:\METIS\LIBMETIS\CHECKGRAPH.C
/c /IC:\metis\GKlib /IC:\metis\include /IC:\metis\libmetis\. /Zi /nologo /W3 /WX- /Od /Ob0 /D WIN32 /D _WINDOWS /D WIN32 /D MSC /D _CRT_SECURE_NO_DEPRECATE /D USE_GKREGEX /D NDEBUG /D NDEBUG2 /D "__thread=__declspec(thread)" /D _DEBUG /D "CMAKE_INTDIR=\"Debug\"" /D _MBCS /Gm- /RTC1 /MDd /GS /fp:precise /Zc:wchar_t /Zc:forScope /Fo"metis.dir\Debug\\" /Fd"metis.dir\Debug\vc100.pdb" /Gd /TC /errorReport:prompt C:\METIS\LIBMETIS\CHECKGRAPH.C
^C:\METIS\LIBMETIS\COARSEN.C
/c /IC:\metis\GKlib /IC:\metis\include /IC:\metis\libmetis\. /Zi /nologo /W3 /WX- /Od /Ob0 /D WIN32 /D _WINDOWS /D WIN32 /D MSC /D _CRT_SECURE_NO_DEPRECATE /D USE_GKREGEX /D NDEBUG /D NDEBUG2 /D "__thread=__declspec(thread)" /D _DEBUG /D "CMAKE_INTDIR=\"Debug\"" /D _MBCS /Gm- /RTC1 /MDd /GS /fp:precise /Zc:wchar_t /Zc:forScope /Fo"metis.dir\Debug\\" /Fd"metis.dir\Debug\vc100.pdb" /Gd /TC /errorReport:prompt C:\METIS\LIBMETIS\COARSEN.C
^C:\METIS\LIBMETIS\COMPRESS.C
/c /IC:\metis\GKlib /IC:\metis\include /IC:\metis\libmetis\. /Zi /nologo /W3 /WX- /Od /Ob0 /D WIN32 /D _WINDOWS /D WIN32 /D MSC /D _CRT_SECURE_NO_DEPRECATE /D USE_GKREGEX /D NDEBUG /D NDEBUG2 /D "__thread=__declspec(thread)" /D _DEBUG /D "CMAKE_INTDIR=\"Debug\"" /D _MBCS /Gm- /RTC1 /MDd /GS /fp:precise /Zc:wchar_t /Zc:forScope /Fo"metis.dir\Debug\\" /Fd"metis.dir\Debug\vc100.pdb" /Gd /TC /errorReport:prompt C:\METIS\LIBMETIS\COMPRESS.C
^C:\METIS\LIBMETIS\CONTIG.C
/c /IC:\metis\GKlib /IC:\metis\include /IC:\metis\libmetis\. /Zi /nologo /W3 /WX- /Od /Ob0 /D WIN32 /D _WINDOWS /D WIN32 /D MSC /D _CRT_SECURE_NO_DEPRECATE /D USE_GKREGEX /D NDEBUG /D NDEBUG2 /D "__thread=__declspec(thread)" /D _DEBUG /D "CMAKE_INTDIR=\"Debug\"" /D _MBCS /Gm- /RTC1 /MDd /GS /fp:precise /Zc:wchar_t /Zc:forScope /Fo"metis.dir\Debug\\" /Fd"metis.dir\Debug\vc100.pdb" /Gd /TC /errorReport:prompt C:\METIS\LIBMETIS\CONTIG.C
^C:\METIS\LIBMETIS\DEBUG.C
/c /IC:\metis\GKlib /IC:\metis\include /IC:\metis\libmetis\. /Zi /nologo /W3 /WX- /Od /Ob0 /D WIN32 /D _WINDOWS /D WIN32 /D MSC /D _CRT_SECURE_NO_DEPRECATE /D USE_GKREGEX /D NDEBUG /D NDEBUG2 /D "__thread=__declspec(thread)" /D _DEBUG /D "CMAKE_INTDIR=\"Debug\"" /D _MBCS /Gm- /RTC1 /MDd /GS /fp:precise /Zc:wchar_t /Zc:forScope /Fo"metis.dir\Debug\\" /Fd"metis.dir\Debug\vc100.pdb" /Gd /TC /errorReport:prompt C:\METIS\LIBMETIS\DEBUG.C
^C:\METIS\LIBMETIS\FM.C
/c /IC:\metis\GKlib /IC:\metis\include /IC:\metis\libmetis\. /Zi /nologo /W3 /WX- /Od /Ob0 /D WIN32 /D _WINDOWS /D WIN32 /D MSC /D _CRT_SECURE_NO_DEPRECATE /D USE_GKREGEX /D NDEBUG /D NDEBUG2 /D "__thread=__declspec(thread)" /D _DEBUG /D "CMAKE_INTDIR=\"Debug\"" /D _MBCS /Gm- /RTC1 /MDd /GS /fp:precise /Zc:wchar_t /Zc:forScope /Fo"metis.dir\Debug\\" /Fd"metis.dir\Debug\vc100.pdb" /Gd /TC /errorReport:prompt C:\METIS\LIBMETIS\FM.C
^C:\METIS\LIBMETIS\FORTRAN.C
/c /IC:\metis\GKlib /IC:\metis\include /IC:\metis\libmetis\. /Zi /nologo /W3 /WX- /Od /Ob0 /D WIN32 /D _WINDOWS /D WIN32 /D MSC /D _CRT_SECURE_NO_DEPRECATE /D USE_GKREGEX /D NDEBUG /D NDEBUG2 /D "__thread=__declspec(thread)" /D _DEBUG /D "CMAKE_INTDIR=\"Debug\"" /D _MBCS /Gm- /RTC1 /MDd /GS /fp:precise /Zc:wchar_t /Zc:forScope /Fo"metis.dir\Debug\\" /Fd"metis.dir\Debug\vc100.pdb" /Gd /TC /errorReport:prompt C:\METIS\LIBMETIS\FORTRAN.C
^C:\METIS\LIBMETIS\FRENAME.C
/c /IC:\metis\GKlib /IC:\metis\include /IC:\metis\libmetis\. /Zi /nologo /W3 /WX- /Od /Ob0 /D WIN32 /D _WINDOWS /D WIN32 /D MSC /D _CRT_SECURE_NO_DEPRECATE /D USE_GKREGEX /D NDEBUG /D NDEBUG2 /D "__thread=__declspec(thread)" /D _DEBUG /D "CMAKE_INTDIR=\"Debug\"" /D _MBCS /Gm- /RTC1 /MDd /GS /fp:precise /Zc:wchar_t /Zc:forScope /Fo"metis.dir\Debug\\" /Fd"metis.dir\Debug\vc100.pdb" /Gd /TC /errorReport:prompt C:\METIS\LIBMETIS\FRENAME.C
^C:\METIS\LIBMETIS\GKLIB.C
/c /IC:\metis\GKlib /IC:\metis\include /IC:\metis\libmetis\. /Zi /nologo /W3 /WX- /Od /Ob0 /D WIN32 /D _WINDOWS /D WIN32 /D MSC /D _CRT_SECURE_NO_DEPRECATE /D USE_GKREGEX /D NDEBUG /D NDEBUG2 /D "__thread=__declspec(thread)" /D _DEBUG /D "CMAKE_INTDIR=\"Debug\"" /D _MBCS /Gm- /RTC1 /MDd /GS /fp:precise /Zc:wchar_t /Zc:forScope /Fo"metis.dir\Debug\\" /Fd"metis.dir\Debug\vc100.pdb" /Gd /TC /errorReport:prompt C:\METIS\LIBMETIS\GKLIB.C
^C:\METIS\LIBMETIS\INITPART.C
/c /IC:\metis\GKlib /IC:\metis\include /IC:\metis\libmetis\. /Zi /nologo /W3 /WX- /Od /Ob0 /D WIN32 /D _WINDOWS /D WIN32 /D MSC /D _CRT_SECURE_NO_DEPRECATE /D USE_GKREGEX /D NDEBUG /D NDEBUG2 /D "__thread=__declspec(thread)" /D _DEBUG /D "CMAKE_INTDIR=\"Debug\"" /D _MBCS /Gm- /RTC1 /MDd /GS /fp:precise /Zc:wchar_t /Zc:forScope /Fo"metis.dir\Debug\\" /Fd"metis.dir\Debug\vc100.pdb" /Gd /TC /errorReport:prompt C:\METIS\LIBMETIS\INITPART.C
^C:\METIS\LIBMETIS\KMETIS.C
/c /IC:\metis\GKlib /IC:\metis\include /IC:\metis\libmetis\. /Zi /nologo /W3 /WX- /Od /Ob0 /D WIN32 /D _WINDOWS /D WIN32 /D MSC /D _CRT_SECURE_NO_DEPRECATE /D USE_GKREGEX /D NDEBUG /D NDEBUG2 /D "__thread=__declspec(thread)" /D _DEBUG /D "CMAKE_INTDIR=\"Debug\"" /D _MBCS /Gm- /RTC1 /MDd /GS /fp:precise /Zc:wchar_t /Zc:forScope /Fo"metis.dir\Debug\\" /Fd"metis.dir\Debug\vc100.pdb" /Gd /TC /errorReport:prompt C:\METIS\LIBMETIS\KMETIS.C
^C:\METIS\LIBMETIS\KWAYFM.C
/c /IC:\metis\GKlib /IC:\metis\include /IC:\metis\libmetis\. /Zi /nologo /W3 /WX- /Od /Ob0 /D WIN32 /D _WINDOWS /D WIN32 /D MSC /D _CRT_SECURE_NO_DEPRECATE /D USE_GKREGEX /D NDEBUG /D NDEBUG2 /D "__thread=__declspec(thread)" /D _DEBUG /D "CMAKE_INTDIR=\"Debug\"" /D _MBCS /Gm- /RTC1 /MDd /GS /fp:precise /Zc:wchar_t /Zc:forScope /Fo"metis.dir\Debug\\" /Fd"metis.dir\Debug\vc100.pdb" /Gd /TC /errorReport:prompt C:\METIS\LIBMETIS\KWAYFM.C
^C:\METIS\LIBMETIS\KWAYREFINE.C
/c /IC:\metis\GKlib /IC:\metis\include /IC:\metis\libmetis\. /Zi /nologo /W3 /WX- /Od /Ob0 /D WIN32 /D _WINDOWS /D WIN32 /D MSC /D _CRT_SECURE_NO_DEPRECATE /D USE_GKREGEX /D NDEBUG /D NDEBUG2 /D "__thread=__declspec(thread)" /D _DEBUG /D "CMAKE_INTDIR=\"Debug\"" /D _MBCS /Gm- /RTC1 /MDd /GS /fp:precise /Zc:wchar_t /Zc:forScope /Fo"metis.dir\Debug\\" /Fd"metis.dir\Debug\vc100.pdb" /Gd /TC /errorReport:prompt C:\METIS\LIBMETIS\KWAYREFINE.C
^C:\METIS\LIBMETIS\MCUTIL.C
/c /IC:\metis\GKlib /IC:\metis\include /IC:\metis\libmetis\. /Zi /nologo /W3 /WX- /Od /Ob0 /D WIN32 /D _WINDOWS /D WIN32 /D MSC /D _CRT_SECURE_NO_DEPRECATE /D USE_GKREGEX /D NDEBUG /D NDEBUG2 /D "__thread=__declspec(thread)" /D _DEBUG /D "CMAKE_INTDIR=\"Debug\"" /D _MBCS /Gm- /RTC1 /MDd /GS /fp:precise /Zc:wchar_t /Zc:forScope /Fo"metis.dir\Debug\\" /Fd"metis.dir\Debug\vc100.pdb" /Gd /TC /errorReport:prompt C:\METIS\LIBMETIS\MCUTIL.C
^C:\METIS\LIBMETIS\MESH.C
/c /IC:\metis\GKlib /IC:\metis\include /IC:\metis\libmetis\. /Zi /nologo /W3 /WX- /Od /Ob0 /D WIN32 /D _WINDOWS /D WIN32 /D MSC /D _CRT_SECURE_NO_DEPRECATE /D USE_GKREGEX /D NDEBUG /D NDEBUG2 /D "__thread=__declspec(thread)" /D _DEBUG /D "CMAKE_INTDIR=\"Debug\"" /D _MBCS /Gm- /RTC1 /MDd /GS /fp:precise /Zc:wchar_t /Zc:forScope /Fo"metis.dir\Debug\\" /Fd"metis.dir\Debug\vc100.pdb" /Gd /TC /errorReport:prompt C:\METIS\LIBMETIS\MESH.C
^C:\METIS\LIBMETIS\MESHPART.C
/c /IC:\metis\GKlib /IC:\metis\include /IC:\metis\libmetis\. /Zi /nologo /W3 /WX- /Od /Ob0 /D WIN32 /D _WINDOWS /D WIN32 /D MSC /D _CRT_SECURE_NO_DEPRECATE /D USE_GKREGEX /D NDEBUG /D NDEBUG2 /D "__thread=__declspec(thread)" /D _DEBUG /D "CMAKE_INTDIR=\"Debug\"" /D _MBCS /Gm- /RTC1 /MDd /GS /fp:precise /Zc:wchar_t /Zc:forScope /Fo"metis.dir\Debug\\" /Fd"metis.dir\Debug\vc100.pdb" /Gd /TC /errorReport:prompt C:\METIS\LIBMETIS\MESHPART.C
^C:\METIS\LIBMETIS\MINCONN.C
/c /IC:\metis\GKlib /IC:\metis\include /IC:\metis\libmetis\. /Zi /nologo /W3 /WX- /Od /Ob0 /D WIN32 /D _WINDOWS /D WIN32 /D MSC /D _CRT_SECURE_NO_DEPRECATE /D USE_GKREGEX /D NDEBUG /D NDEBUG2 /D "__thread=__declspec(thread)" /D _DEBUG /D "CMAKE_INTDIR=\"Debug\"" /D _MBCS /Gm- /RTC1 /MDd /GS /fp:precise /Zc:wchar_t /Zc:forScope /Fo"metis.dir\Debug\\" /Fd"metis.dir\Debug\vc100.pdb" /Gd /TC /errorReport:prompt C:\METIS\LIBMETIS\MINCONN.C
^C:\METIS\LIBMETIS\MINCOVER.C
/c /IC:\metis\GKlib /IC:\metis\include /IC:\metis\libmetis\. /Zi /nologo /W3 /WX- /Od /Ob0 /D WIN32 /D _WINDOWS /D WIN32 /D MSC /D _CRT_SECURE_NO_DEPRECATE /D USE_GKREGEX /D NDEBUG /D NDEBUG2 /D "__thread=__declspec(thread)" /D _DEBUG /D "CMAKE_INTDIR=\"Debug\"" /D _MBCS /Gm- /RTC1 /MDd /GS /fp:precise /Zc:wchar_t /Zc:forScope /Fo"metis.dir\Debug\\" /Fd"metis.dir\Debug\vc100.pdb" /Gd /TC /errorReport:prompt C:\METIS\LIBMETIS\MINCOVER.C
^C:\METIS\LIBMETIS\MMD.C
/c /IC:\metis\GKlib /IC:\metis\include /IC:\metis\libmetis\. /Zi /nologo /W3 /WX- /Od /Ob0 /D WIN32 /D _WINDOWS /D WIN32 /D MSC /D _CRT_SECURE_NO_DEPRECATE /D USE_GKREGEX /D NDEBUG /D NDEBUG2 /D "__thread=__declspec(thread)" /D _DEBUG /D "CMAKE_INTDIR=\"Debug\"" /D _MBCS /Gm- /RTC1 /MDd /GS /fp:precise /Zc:wchar_t /Zc:forScope /Fo"metis.dir\Debug\\" /Fd"metis.dir\Debug\vc100.pdb" /Gd /TC /errorReport:prompt C:\METIS\LIBMETIS\MMD.C
^C:\METIS\LIBMETIS\OMETIS.C
/c /IC:\metis\GKlib /IC:\metis\include /IC:\metis\libmetis\. /Zi /nologo /W3 /WX- /Od /Ob0 /D WIN32 /D _WINDOWS /D WIN32 /D MSC /D _CRT_SECURE_NO_DEPRECATE /D USE_GKREGEX /D NDEBUG /D NDEBUG2 /D "__thread=__declspec(thread)" /D _DEBUG /D "CMAKE_INTDIR=\"Debug\"" /D _MBCS /Gm- /RTC1 /MDd /GS /fp:precise /Zc:wchar_t /Zc:forScope /Fo"metis.dir\Debug\\" /Fd"metis.dir\Debug\vc100.pdb" /Gd /TC /errorReport:prompt C:\METIS\LIBMETIS\OMETIS.C
^C:\METIS\LIBMETIS\OPTIONS.C
/c /IC:\metis\GKlib /IC:\metis\include /IC:\metis\libmetis\. /Zi /nologo /W3 /WX- /Od /Ob0 /D WIN32 /D _WINDOWS /D WIN32 /D MSC /D _CRT_SECURE_NO_DEPRECATE /D USE_GKREGEX /D NDEBUG /D NDEBUG2 /D "__thread=__declspec(thread)" /D _DEBUG /D "CMAKE_INTDIR=\"Debug\"" /D _MBCS /Gm- /RTC1 /MDd /GS /fp:precise /Zc:wchar_t /Zc:forScope /Fo"metis.dir\Debug\\" /Fd"metis.dir\Debug\vc100.pdb" /Gd /TC /errorReport:prompt C:\METIS\LIBMETIS\OPTIONS.C
^C:\METIS\LIBMETIS\PARMETIS.C
/c /IC:\metis\GKlib /IC:\metis\include /IC:\metis\libmetis\. /Zi /nologo /W3 /WX- /Od /Ob0 /D WIN32 /D _WINDOWS /D WIN32 /D MSC /D _CRT_SECURE_NO_DEPRECATE /D USE_GKREGEX /D NDEBUG /D NDEBUG2 /D "__thread=__declspec(thread)" /D _DEBUG /D "CMAKE_INTDIR=\"Debug\"" /D _MBCS /Gm- /RTC1 /MDd /GS /fp:precise /Zc:wchar_t /Zc:forScope /Fo"metis.dir\Debug\\" /Fd"metis.dir\Debug\vc100.pdb" /Gd /TC /errorReport:prompt C:\METIS\LIBMETIS\PARMETIS.C
^C:\METIS\LIBMETIS\PMETIS.C
/c /IC:\metis\GKlib /IC:\metis\include /IC:\metis\libmetis\. /Zi /nologo /W3 /WX- /Od /Ob0 /D WIN32 /D _WINDOWS /D WIN32 /D MSC /D _CRT_SECURE_NO_DEPRECATE /D USE_GKREGEX /D NDEBUG /D NDEBUG2 /D "__thread=__declspec(thread)" /D _DEBUG /D "CMAKE_INTDIR=\"Debug\"" /D _MBCS /Gm- /RTC1 /MDd /GS /fp:precise /Zc:wchar_t /Zc:forScope /Fo"metis.dir\Debug\\" /Fd"metis.dir\Debug\vc100.pdb" /Gd /TC /errorReport:prompt C:\METIS\LIBMETIS\PMETIS.C
^C:\METIS\LIBMETIS\REFINE.C
/c /IC:\metis\GKlib /IC:\metis\include /IC:\metis\libmetis\. /Zi /nologo /W3 /WX- /Od /Ob0 /D WIN32 /D _WINDOWS /D WIN32 /D MSC /D _CRT_SECURE_NO_DEPRECATE /D USE_GKREGEX /D NDEBUG /D NDEBUG2 /D "__thread=__declspec(thread)" /D _DEBUG /D "CMAKE_INTDIR=\"Debug\"" /D _MBCS /Gm- /RTC1 /MDd /GS /fp:precise /Zc:wchar_t /Zc:forScope /Fo"metis.dir\Debug\\" /Fd"metis.dir\Debug\vc100.pdb" /Gd /TC /errorReport:prompt C:\METIS\LIBMETIS\REFINE.C
^C:\METIS\LIBMETIS\SEPARATOR.C
/c /IC:\metis\GKlib /IC:\metis\include /IC:\metis\libmetis\. /Zi /nologo /W3 /WX- /Od /Ob0 /D WIN32 /D _WINDOWS /D WIN32 /D MSC /D _CRT_SECURE_NO_DEPRECATE /D USE_GKREGEX /D NDEBUG /D NDEBUG2 /D "__thread=__declspec(thread)" /D _DEBUG /D "CMAKE_INTDIR=\"Debug\"" /D _MBCS /Gm- /RTC1 /MDd /GS /fp:precise /Zc:wchar_t /Zc:forScope /Fo"metis.dir\Debug\\" /Fd"metis.dir\Debug\vc100.pdb" /Gd /TC /errorReport:prompt C:\METIS\LIBMETIS\SEPARATOR.C
^C:\METIS\LIBMETIS\SFM.C
/c /IC:\metis\GKlib /IC:\metis\include /IC:\metis\libmetis\. /Zi /nologo /W3 /WX- /Od /Ob0 /D WIN32 /D _WINDOWS /D WIN32 /D MSC /D _CRT_SECURE_NO_DEPRECATE /D USE_GKREGEX /D NDEBUG /D NDEBUG2 /D "__thread=__declspec(thread)" /D _DEBUG /D "CMAKE_INTDIR=\"Debug\"" /D _MBCS /Gm- /RTC1 /MDd /GS /fp:precise /Zc:wchar_t /Zc:forScope /Fo"metis.dir\Debug\\" /Fd"metis.dir\Debug\vc100.pdb" /Gd /TC /errorReport:prompt C:\METIS\LIBMETIS\SFM.C
^C:\METIS\LIBMETIS\SREFINE.C
/c /IC:\metis\GKlib /IC:\metis\include /IC:\metis\libmetis\. /Zi /nologo /W3 /WX- /Od /Ob0 /D WIN32 /D _WINDOWS /D WIN32 /D MSC /D _CRT_SECURE_NO_DEPRECATE /D USE_GKREGEX /D NDEBUG /D NDEBUG2 /D "__thread=__declspec(thread)" /D _DEBUG /D "CMAKE_INTDIR=\"Debug\"" /D _MBCS /Gm- /RTC1 /MDd /GS /fp:precise /Zc:wchar_t /Zc:forScope /Fo"metis.dir\Debug\\" /Fd"metis.dir\Debug\vc100.pdb" /Gd /TC /errorReport:prompt C:\METIS\LIBMETIS\SREFINE.C
^C:\METIS\LIBMETIS\STAT.C
/c /IC:\metis\GKlib /IC:\metis\include /IC:\metis\libmetis\. /Zi /nologo /W3 /WX- /Od /Ob0 /D WIN32 /D _WINDOWS /D WIN32 /D MSC /D _CRT_SECURE_NO_DEPRECATE /D USE_GKREGEX /D NDEBUG /D NDEBUG2 /D "__thread=__declspec(thread)" /D _DEBUG /D "CMAKE_INTDIR=\"Debug\"" /D _MBCS /Gm- /RTC1 /MDd /GS /fp:precise /Zc:wchar_t /Zc:forScope /Fo"metis.dir\Debug\\" /Fd"metis.dir\Debug\vc100.pdb" /Gd /TC /errorReport:prompt C:\METIS\LIBMETIS\STAT.C
^C:\METIS\LIBMETIS\TIMING.C
/c /IC:\metis\GKlib /IC:\metis\include /IC:\metis\libmetis\. /Zi /nologo /W3 /WX- /Od /Ob0 /D WIN32 /D _WINDOWS /D WIN32 /D MSC /D _CRT_SECURE_NO_DEPRECATE /D USE_GKREGEX /D NDEBUG /D NDEBUG2 /D "__thread=__declspec(thread)" /D _DEBUG /D "CMAKE_INTDIR=\"Debug\"" /D _MBCS /Gm- /RTC1 /MDd /GS /fp:precise /Zc:wchar_t /Zc:forScope /Fo"metis.dir\Debug\\" /Fd"metis.dir\Debug\vc100.pdb" /Gd /TC /errorReport:prompt C:\METIS\LIBMETIS\TIMING.C
^C:\METIS\LIBMETIS\WSPACE.C
/c /IC:\metis\GKlib /IC:\metis\include /IC:\metis\libmetis\. /Zi /nologo /W3 /WX- /Od /Ob0 /D WIN32 /D _WINDOWS /D WIN32 /D MSC /D _CRT_SECURE_NO_DEPRECATE /D USE_GKREGEX /D NDEBUG /D NDEBUG2 /D "__thread=__declspec(thread)" /D _DEBUG /D "CMAKE_INTDIR=\"Debug\"" /D _MBCS /Gm- /RTC1 /MDd /GS /fp:precise /Zc:wchar_t /Zc:forScope /Fo"metis.dir\Debug\\" /Fd"metis.dir\Debug\vc100.pdb" /Gd /TC /errorReport:prompt C:\METIS\LIBMETIS\WSPACE.C
^C:\METIS\GKLIB\GRAPH.C
/c /IC:\metis\GKlib /IC:\metis\include /IC:\metis\libmetis\. /Zi /nologo /W3 /WX- /Od /Ob0 /D WIN32 /D _WINDOWS /D WIN32 /D MSC /D _CRT_SECURE_NO_DEPRECATE /D USE_GKREGEX /D NDEBUG /D NDEBUG2 /D "__thread=__declspec(thread)" /D _DEBUG /D "CMAKE_INTDIR=\"Debug\"" /D _MBCS /Gm- /RTC1 /MDd /GS /fp:precise /Zc:wchar_t /Zc:forScope /Fo"metis.dir\Debug\/__/GKlib/graph.c.obj" /Fd"metis.dir\Debug\vc100.pdb" /Gd /TC /errorReport:prompt C:\METIS\GKLIB\GRAPH.C
^C:\METIS\GKLIB\UTIL.C
/c /IC:\metis\GKlib /IC:\metis\include /IC:\metis\libmetis\. /Zi /nologo /W3 /WX- /Od /Ob0 /D WIN32 /D _WINDOWS /D WIN32 /D MSC /D _CRT_SECURE_NO_DEPRECATE /D USE_GKREGEX /D NDEBUG /D NDEBUG2 /D "__thread=__declspec(thread)" /D _DEBUG /D "CMAKE_INTDIR=\"Debug\"" /D _MBCS /Gm- /RTC1 /MDd /GS /fp:precise /Zc:wchar_t /Zc:forScope /Fo"metis.dir\Debug\/__/GKlib/util.c.obj" /Fd"metis.dir\Debug\vc100.pdb" /Gd /TC /errorReport:prompt C:\METIS\GKLIB\UTIL.C
^C:\METIS\LIBMETIS\GRAPH.C
/c /IC:\metis\GKlib /IC:\metis\include /IC:\metis\libmetis\. /Zi /nologo /W3 /WX- /Od /Ob0 /D WIN32 /D _WINDOWS /D WIN32 /D MSC /D _CRT_SECURE_NO_DEPRECATE /D USE_GKREGEX /D NDEBUG /D NDEBUG2 /D "__thread=__declspec(thread)" /D _DEBUG /D "CMAKE_INTDIR=\"Debug\"" /D _MBCS /Gm- /RTC1 /MDd /GS /fp:precise /Zc:wchar_t /Zc:forScope /Fo"metis.dir\Debug\/graph.c.obj" /Fd"metis.dir\Debug\vc100.pdb" /Gd /TC /errorReport:prompt C:\METIS\LIBMETIS\GRAPH.C
^C:\METIS\LIBMETIS\UTIL.C
/c /IC:\metis\GKlib /IC:\metis\include /IC:\metis\libmetis\. /Zi /nologo /W3 /WX- /Od /Ob0 /D WIN32 /D _WINDOWS /D WIN32 /D MSC /D _CRT_SECURE_NO_DEPRECATE /D USE_GKREGEX /D NDEBUG /D NDEBUG2 /D "__thread=__declspec(thread)" /D _DEBUG /D "CMAKE_INTDIR=\"Debug\"" /D _MBCS /Gm- /RTC1 /MDd /GS /fp:precise /Zc:wchar_t /Zc:forScope /Fo"metis.dir\Debug\/util.c.obj" /Fd"metis.dir\Debug\vc100.pdb" /Gd /TC /errorReport:prompt C:\METIS\LIBMETIS\UTIL.C
