^C:\METIS\BUILD\CMAKEFILES\3.0.0\COMPILERIDCXX\DEBUG\CMAKECXXCOMPILERID.OBJ
C:\METIS\BUILD\CMAKEFILES\3.0.0\COMPILERIDCXX\COMPILERIDCXX.EXE
C:\METIS\BUILD\CMAKEFILES\3.0.0\COMPILERIDCXX\DEBUG\COMPILERIDCXX.EXE.INTERMEDIATE.MANIFEST
