instance,algsetting,result
comp01,UP10,0
comp01,UP2,4
comp01,UP3,0
comp01,UP4,0
comp01,UP5,0
comp01,UP6,0
comp01,UP7,0
comp01,UP8,0
comp01,UP9,0
comp02,UP10,6
comp02,UP2,16
comp02,UP3,12
comp02,UP4,6
comp02,UP5,10
comp02,UP6,6
comp02,UP7,6
comp02,UP8,6
comp02,UP9,6
comp03,UP10,24
comp03,UP2,58
comp03,UP3,38
comp03,UP4,35
comp03,UP5,32
comp03,UP6,32
comp03,UP7,28
comp03,UP8,26
comp03,UP9,24
comp04,UP10,23
comp04,UP2,35
comp04,UP3,35
comp04,UP4,35
comp04,UP5,29
comp04,UP6,29
comp04,UP7,35
comp04,UP8,29
comp04,UP9,29
comp05,UP10,90
comp05,UP2,134.54
comp05,UP3,138.33
comp05,UP4,134
comp05,UP5,122
comp05,UP6,111
comp05,UP7,104
comp05,UP8,89
comp05,UP9,90
comp06,UP10,12
comp06,UP2,27
comp06,UP3,24
comp06,UP4,20
comp06,UP5,17
comp06,UP6,17
comp06,UP7,12
comp06,UP8,12
comp06,UP9,12
comp07,UP10,6
comp07,UP2,6
comp07,UP3,6
comp07,UP4,6
comp07,UP5,6
comp07,UP6,6
comp07,UP7,6
comp07,UP8,6
comp07,UP9,6
comp08,UP10,20
comp08,UP2,37
comp08,UP3,37
comp08,UP4,37
comp08,UP5,29
comp08,UP6,37
comp08,UP7,26
comp08,UP8,27
comp08,UP9,31
comp09,UP10,43
comp09,UP2,96
comp09,UP3,95
comp09,UP4,89
comp09,UP5,81
comp09,UP6,70
comp09,UP7,62
comp09,UP8,64
comp09,UP9,65
comp10,UP10,4
comp10,UP2,4
comp10,UP3,4
comp10,UP4,4
comp10,UP5,4
comp10,UP6,4
comp10,UP7,4
comp10,UP8,4
comp10,UP9,4
comp11,UP10,0
comp11,UP2,0
comp11,UP3,0
comp11,UP4,0
comp11,UP5,0
comp11,UP6,0
comp11,UP7,0
comp11,UP8,0
comp11,UP9,0
comp12,UP10,70
comp12,UP2,127
comp12,UP3,135
comp12,UP4,122
comp12,UP5,132
comp12,UP6,88
comp12,UP7,116
comp12,UP8,92
comp12,UP9,84
comp13,UP10,47
comp13,UP2,59
comp13,UP3,59
comp13,UP4,53
comp13,UP5,59
comp13,UP6,47
comp13,UP7,57
comp13,UP8,43
comp13,UP9,45
comp14,UP10,39
comp14,UP2,51
comp14,UP3,51
comp14,UP4,43
comp14,UP5,41
comp14,UP6,39
comp14,UP7,39
comp14,UP8,41
comp14,UP9,32
comp15,UP10,24
comp15,UP2,58
comp15,UP3,38
comp15,UP4,35
comp15,UP5,32
comp15,UP6,32
comp15,UP7,28
comp15,UP8,26
comp15,UP9,24
comp16,UP10,9
comp16,UP2,16
comp16,UP3,16
comp16,UP4,13
comp16,UP5,13
comp16,UP6,13
comp16,UP7,11
comp16,UP8,9
comp16,UP9,9
comp17,UP10,37
comp17,UP2,56
comp17,UP3,55
comp17,UP4,45
comp17,UP5,43
comp17,UP6,43
comp17,UP7,37
comp17,UP8,37
comp17,UP9,37
comp18,UP10,0
comp18,UP2,14
comp18,UP3,8
comp18,UP4,6
comp18,UP5,4
comp18,UP6,4
comp18,UP7,2
comp18,UP8,2
comp18,UP9,0
comp19,UP10,26
comp19,UP2,40
comp19,UP3,47
comp19,UP4,38
comp19,UP5,50
comp19,UP6,26
comp19,UP7,34
comp19,UP8,32
comp19,UP9,20
comp20,UP10,0
comp20,UP2,4
comp20,UP3,0
comp20,UP4,0
comp20,UP5,0
comp20,UP6,0
comp20,UP7,0
comp20,UP8,0
comp20,UP9,0
comp21,UP10,35
comp21,UP2,74
comp21,UP3,70
comp21,UP4,57
comp21,UP5,47
comp21,UP6,47
comp21,UP7,39
comp21,UP8,39
comp21,UP9,37
