c0063 rC 0 0
c0069 rG 0 0
c0062 rS 0 0
c0064 rB 0 1
c0068 rC 0 1
c0057 rF 0 1
c0062 rS 0 1
c0064 rB 0 2
c0059 rF 0 2
c0067 rG 0 2
c0059 rF 0 3
c0066 rG 0 3
c0061 rB 0 4
c0070 rE 0 4
c0065 rF 0 4
c0071 rS 0 4
c0061 rB 0 5
c0072 rE 0 5
c0068 rC 1 0
c0066 rG 1 0
c0068 rC 1 1
c0059 rF 1 1
c0066 rG 1 1
c0064 rB 1 2
c0058 rC 1 2
c0059 rF 1 2
c0067 rG 1 2
c0072 rE 1 3
c0069 rG 1 3
c0071 rS 1 3
c0064 rB 1 4
c0070 rE 1 4
c0062 rS 1 4
c0061 rB 1 5
c0065 rF 2 0
c0066 rG 2 0
c0068 rC 2 1
c0059 rF 2 1
c0066 rG 2 1
c0063 rC 2 2
c0072 rE 2 2
c0057 rF 2 2
c0067 rG 2 2
c0063 rC 2 3
c0070 rE 2 3
c0067 rG 2 3
c0068 rC 2 4
c0072 rE 2 4
c0071 rS 2 4
c0058 rC 2 5
c0065 rF 2 5
c0069 rG 2 5
c0071 rS 2 5
c0063 rC 3 0
c0069 rG 3 0
c0064 rB 3 1
c0068 rC 3 1
c0065 rF 3 1
c0058 rC 3 2
c0059 rF 3 2
c0069 rG 3 2
c0062 rS 3 2
c0061 rB 3 3
c0057 rF 3 3
c0066 rG 3 3
c0072 rE 3 4
c0071 rS 3 4
c0070 rE 3 5
c0065 rF 3 5
c0063 rC 4 0
c0070 rE 4 0
c0063 rC 4 1
c0070 rE 4 1
c0057 rF 4 1
c0061 rB 4 2
c0072 rE 4 2
c0057 rF 4 2
c0058 rC 4 3
c0065 rF 4 3
c0062 rS 4 3
c0061 rB 4 4
c0058 rC 4 4
c0067 rG 4 4
c0071 rS 4 4
c0064 rB 4 5
c0069 rG 4 5
