c0025 rB 0 0
c0015 rC 0 0
c0025 rB 0 1
c0016 rC 0 1
c0025 rB 0 2
c0016 rC 0 2
c0033 rS 0 2
c0025 rB 0 3
c0016 rC 0 3
c0030 rG 0 3
c0031 rS 0 3
c0001 rB 0 4
c0015 rC 0 4
c0005 rB 0 5
c0024 rC 0 5
c0025 rB 1 0
c0016 rC 1 0
c0031 rS 1 0
c0001 rB 1 1
c0014 rC 1 1
c0033 rS 1 1
c0002 rB 1 2
c0078 rC 1 2
c0030 rG 1 2
c0002 rB 1 3
c0017 rC 1 3
c0004 rB 1 4
c0015 rC 1 4
c0004 rB 1 5
c0016 rC 1 5
c0025 rB 2 0
c0033 rC 2 0
c0025 rB 2 1
c0033 rC 2 1
c0002 rB 2 2
c0024 rC 2 2
c0005 rB 2 3
c0078 rC 2 3
c0031 rS 2 3
c0001 rB 2 4
c0015 rC 2 4
c0031 rS 2 4
c0001 rB 2 5
c0016 rC 2 5
c0004 rB 3 0
c0015 rC 3 0
c0033 rS 3 0
c0004 rB 3 1
c0015 rC 3 1
c0033 rS 3 1
c0004 rB 3 2
c0078 rC 3 2
c0002 rB 3 3
c0078 rC 3 3
c0030 rG 3 3
c0001 rB 3 4
c0016 rC 3 4
c0030 rG 3 4
c0001 rB 3 5
c0015 rC 3 5
c0025 rB 4 0
c0032 rC 4 0
c0004 rB 4 1
c0024 rC 4 1
c0030 rG 4 1
c0031 rS 4 1
c0004 rB 4 2
c0078 rC 4 2
c0005 rB 4 3
c0024 rC 4 3
c0002 rB 4 4
c0017 rC 4 4
c0002 rB 4 5
c0015 rC 4 5
