PLIOT-P sala1 0 0
LINPR-T sala4 0 0
PRG2A-P sala2 0 1
ESD1A-P sala3 0 1
TEOCOMP sala4 0 1
INTROCC sala1 0 2
TEPRG-T sala2 0 2
ASPTECP sala1 1 0
PRCPD-T sala3 1 0
ALGN2-T sala4 1 0
COMPD-T sala3 1 1
ENGREQS sala4 1 1
PRGIB-P sala1 1 2
INTHCMP sala3 1 2
PLIOT-T sala1 2 0
ARQCP-P sala2 2 0
ESD1B-T sala3 2 0
LOGCOM2 sala4 2 0
ASPTECP sala1 2 1
BDADO-P sala2 2 1
ESD1A-T sala3 2 1
TEOCOMP sala4 2 1
PRGIB-T sala1 2 2
TEPRG-P sala2 2 2
SISOP-P sala4 2 2
PRG2A-T sala2 3 0
ALGN2-P sala4 3 0
COMPD-P sala3 3 1
ENGREQS sala4 3 1
INTROCC sala1 3 2
INTHCMP sala3 3 2
LINPR-P sala4 3 2
TOPEPI3 sala1 4 0
ESD1B-P sala3 4 0
LOGCOM2 sala4 4 0
PRCPD-P sala3 4 1
TOPEPI3 sala1 4 2
