TOPELOG sala3 0 0
PRG2B-P sala1 0 1
PRG2C-T sala2 0 1
AVDSC-T sala4 0 1
LOGCOM1 sala2 1 0
ESDII-T sala1 1 1
AGFTC-P sala3 1 1
PRG3A-T sala1 1 2
PRGIA-T sala3 1 2
PRG2B-T sala1 2 1
PRG2C-P sala2 2 1
AVDSC-P sala4 2 1
INTROEC sala1 2 2
TOPELOG sala3 3 0
ESDII-P sala1 3 1
TOPEPES sala2 3 1
AGFTC-T sala3 3 1
TOPEPES sala2 3 2
PRGIA-P sala3 3 2
PRG3A-P sala1 4 1
LOGCOM1 sala2 4 1
