0.00
7 3 3 7 5 5 4 5 2 7 1 0 5 4 4 6 1 0 6 6 6 1 5 5 5 4 4 4 4 4 0 0 0 0 0 1 1 3 1 0 2 2 2 2 2 2 2 2 1 1 1 3 2 2 2 2 0 0 0 3 3 3 3 5 2 4 
5 5 2 2 7 7 1 1 0 7 7 3 3 7 7 3 3 3 6 6 6 6 6 6 6 6 1 7 7 5 5 7 4 1 1 1 2 0 3 5 5 4 4 0 3 0 4 6 4 4 4 4 5 4 4 5 5 0 0 0 0 0 1 2 2 2 2 1 2 2 2 1 3 3 
