0.00
6 3 3 5 2 5 0 0 5 1 3 3 3 4 4 4 4 6 3 2 2 2 2 2 2 2 2 2 0 0 4 9 9 9 9 8 8 8 6 6 6 7 8 8 8 9 8 8 8 8 8 8 8 6 6 6 5 6 7 6 1 1 1 1 1 0 1 1 0 9 8 8 8 8 8 1 1 1 
3 5 5 5 5 5 4 9 9 9 9 9 8 9 3 2 6 7 6 7 7 7 8 7 4 4 3 6 7 8 8 7 7 8 6 3 3 2 3 2 2 0 8 8 0 9 2 2 0 0 2 2 4 2 0 8 8 6 6 8 6 6 9 5 1 8 1 9 1 2 0 5 5 5 0 0 0 4 3 6 9 1 1 4 4 3 3 4 4 1 1 0 1 1 
