0.00
4 1 1 3 0 3 1 1 4 0 2 2 2 2 2 2 2 3 1 0 0 0 0 0 0 0 0 0 1 1 2 4 5 5 5 5 5 5 4 4 4 3 5 5 5 4 5 5 5 5 5 5 5 4 4 4 4 3 3 4 2 2 2 2 2 0 0 0 0 5 5 5 5 5 5 2 2 2 
1 3 4 3 3 3 2 4 5 4 4 5 5 5 1 0 3 3 4 3 3 3 4 3 2 2 2 4 3 5 5 3 3 5 3 1 1 0 1 0 0 0 5 5 1 5 0 0 1 1 0 0 0 0 1 5 5 4 4 5 4 4 5 4 2 5 1 5 2 0 1 3 4 4 1 1 1 2 2 4 5 0 2 2 2 2 2 2 2 2 2 1 0 0 
