0.00
3 2 8 8 8 3 1 1 1 0 4 0 3 2 7 7 7 7 1 1 4 4 4 2 2 8 8 8 1 1 1 0 0 0 0 2 8 8 8 8 8 8 8 8 8 8 6 6 6 6 4 4 5 5 7 7 7 7 7 7 7 7 7 5 5 5 6 6 6 6 6 6 3 3 3 0 0 0 
1 1 0 4 0 1 5 3 2 7 3 2 7 7 3 7 7 3 2 8 3 2 2 8 8 3 1 1 0 0 1 0 2 2 2 2 8 8 2 3 3 1 1 4 4 1 4 3 2 4 8 8 4 4 5 5 5 4 4 5 5 8 6 8 7 7 7 6 7 8 5 8 6 6 5 5 6 5 6 6 5 6 8 2 8 5 7 7 7 2 3 6 6 3 3 3 3 6 0 0 0 4 5 1 0 1 0 1 8 7 0 0 7 0 4 8 6 6 4 4 6 
