0.00
5 4 5 5 5 6 1 1 1 3 2 1 0 4 3 3 3 3 1 1 2 2 2 0 4 3 3 3 2 2 2 1 1 1 1 1 1 4 3 3 3 6 6 6 6 6 6 3 6 2 2 2 2 6 6 6 6 6 6 4 4 4 3 3 3 5 5 5 0 0 0 1 1 1 0 0 0 
1 1 3 2 3 1 3 0 4 3 4 0 4 3 3 0 3 3 2 5 4 5 5 4 4 5 5 5 2 2 1 1 2 1 1 0 4 4 0 3 3 0 6 6 1 1 2 2 1 2 6 4 2 3 6 5 2 2 2 2 2 2 2 0 6 6 5 6 6 6 6 6 6 6 6 4 3 3 3 4 3 3 4 3 3 4 6 5 4 5 4 6 6 3 4 0 5 5 0 0 0 5 5 0 5 1 0 0 0 1 1 3 2 4 5 2 1 2 1 2 5 1 6 1 0 0 1 6 1 2 5 
