0.00
2 2 1 3 4 4 4 1 5 2 2 2 2 2 4 5 5 3 7 0 0 0 6 6 6 6 6 6 6 7 7 2 0 0 0 0 0 0 0 1 1 1 1 5 5 4 4 4 4 4 4 4 0 0 0 3 3 3 7 7 3 3 3 1 4 4 4 3 7 7 
4 1 1 1 1 2 2 2 2 2 0 5 4 5 2 1 2 0 2 6 7 6 7 6 7 0 0 7 7 7 0 4 4 5 4 5 5 5 7 4 5 6 6 6 1 6 6 6 6 6 6 0 0 5 4 4 4 5 5 5 5 4 0 0 1 1 0 3 3 3 3 1 7 7 3 0 0 3 2 3 2 7 7 3 3 3 0 4 7 5 1 1 3 4 4 3 1 2 7 
