0.00
7 4 1 6 5 5 5 1 8 7 4 3 3 3 3 5 5 8 8 8 6 4 0 0 0 4 4 6 6 6 6 8 8 3 0 0 0 0 0 0 0 1 1 1 1 9 9 8 8 8 8 8 0 0 0 2 2 2 7 7 2 2 2 1 9 9 2 7 7 5 3 
5 7 0 1 1 3 3 3 3 3 1 7 8 7 4 1 4 0 4 6 8 6 8 4 4 0 0 4 4 4 0 5 5 5 8 5 9 9 8 0 0 9 8 8 8 9 9 9 9 8 0 0 1 1 0 2 1 7 7 2 2 2 2 0 8 1 1 2 8 9 7 7 7 7 9 9 3 5 3 5 3 5 5 3 6 4 5 1 6 6 4 6 0 3 6 4 4 6 6 7 7 8 2 2 2 6 1 3 
