0.00
3 0 1 0 0 6 6 6 5 7 5 5 1 2 6 6 7 7 5 1 2 3 3 3 4 4 4 4 0 0 0 1 2 2 2 2 2 2 2 7 7 7 7 7 2 2 2 2 2 2 3 2 2 2 1 1 5 6 7 7 1 7 7 4 4 4 
6 6 6 5 5 5 1 1 1 5 1 3 0 0 3 3 0 1 1 3 4 4 4 0 0 5 5 5 1 0 0 6 6 6 0 7 7 7 1 1 7 7 7 7 2 2 2 2 3 2 2 2 1 1 7 2 2 6 6 6 7 4 4 4 4 5 4 4 4 3 7 0 3 4 3 3 0 5 0 5 2 2 
