0.00
2 6 5 3 3 9 9 9 7 8 7 3 5 0 9 9 9 9 3 5 0 2 2 2 7 7 7 7 4 4 4 3 5 0 0 0 0 1 1 6 6 8 0 0 0 1 1 1 5 5 7 8 8 5 9 9 4 4 4 1 1 
8 9 8 7 7 3 5 5 3 5 2 6 6 2 2 6 5 5 2 7 7 7 4 3 3 3 6 3 3 8 9 9 3 9 9 9 5 5 6 9 6 8 8 0 0 1 0 1 1 1 0 5 5 7 6 0 0 9 8 8 8 1 0 4 4 1 1 4 1 4 4 7 7 7 2 6 4 2 7 2 2 4 3 4 8 0 
