0.00
3 3 7 6 6 0 0 0 8 0 3 7 4 1 0 2 2 8 8 5 5 5 5 1 1 1 1 6 6 6 7 4 4 4 4 5 4 4 2 2 2 2 0 4 4 4 5 4 5 7 7 8 0 0 7 2 2 
0 0 0 8 8 3 7 7 7 3 7 3 3 3 3 3 3 7 7 5 1 1 1 6 6 8 8 8 8 6 6 1 1 0 6 2 2 2 8 8 2 2 2 0 0 4 5 4 4 5 4 5 4 7 7 2 4 4 0 0 2 1 1 1 5 2 6 5 1 5 5 6 0 3 6 6 4 5 8 
