0.00
1 0 2 1 9 9 9 2 8 1 4 4 4 4 9 8 8 1 6 3 3 3 6 6 6 5 5 5 5 5 5 4 3 3 3 3 3 3 3 2 2 2 2 8 7 9 9 9 9 9 9 9 3 3 3 0 0 0 7 7 1 1 1 2 8 8 8 1 7 7 
9 2 2 2 2 0 4 4 4 4 4 8 9 8 0 2 0 3 0 5 5 5 5 6 6 3 3 6 6 6 3 9 9 8 9 8 8 8 7 8 8 5 6 5 4 5 5 6 6 6 5 3 3 8 9 9 9 7 7 7 7 9 3 3 2 2 3 0 0 0 0 4 7 7 1 3 4 1 1 1 1 5 5 0 1 1 3 9 7 8 2 2 1 9 8 1 2 4 7 
