0.00
2 2 2 0 2 5 1 2 1 1 0 4 4 4 4 0 4 3 3 3 6 3 3 3 0 6 6 5 5 5 1 1 1 1 1 4 4 4 4 4 4 3 3 3 3 3 3 3 1 1 1 1 2 0 0 4 4 4 4 3 3 3 3 3 3 3 6 6 
2 1 5 3 1 5 5 0 2 2 2 1 0 1 0 4 4 3 4 4 4 4 3 0 6 6 6 6 3 0 6 6 6 6 6 3 2 2 2 2 2 5 5 5 5 5 5 1 4 4 3 3 1 1 1 1 2 1 0 3 0 0 4 4 4 3 5 3 3 3 6 6 
