0.00
3 6 4 4 4 2 2 2 2 1 0 1 6 5 5 5 5 2 2 0 0 1 6 5 5 5 3 3 3 2 2 2 2 6 5 5 5 4 4 4 4 7 7 7 7 0 0 1 1 5 5 5 7 7 7 6 6 6 7 7 7 4 4 4 3 3 3 
7 4 6 7 4 3 6 6 4 4 4 3 3 3 2 2 1 3 2 0 6 6 1 1 5 4 1 2 2 2 2 0 0 2 2 0 2 1 6 0 5 4 0 0 0 1 1 1 0 1 0 1 1 4 7 4 6 5 5 7 5 5 4 5 6 6 7 7 1 7 7 6 7 7 6 7 1 6 4 5 5 1 2 5 4 7 7 5 5 6 5 6 3 4 4 3 3 3 4 3 4 0 0 2 2 0 6 3 3 2 2 3 2 3 4 
