0.00
6 6 7 7 2 9 2 9 9 9 1 9 5 5 5 2 2 2 6 6 7 9 9 9 9 9 9 9 9 9 9 5 4 4 4 4 4 3 3 3 6 8 3 6 8 0 3 0 8 7 1 1 1 1 3 0 1 9 9 9 3 3 3 0 0 0 0 0 0 0 0 4 1 0 1 
7 7 2 2 5 1 4 4 5 4 8 7 7 8 8 7 1 1 5 2 2 2 6 6 6 8 6 6 7 7 7 6 9 9 9 8 8 3 3 0 9 9 3 4 3 4 1 0 1 0 4 6 2 2 5 3 3 9 1 5 2 5 5 3 6 0 0 4 3 9 9 8 0 1 1 0 
